{"results":[{"name":"Barcelona International Expats","id":1309654,"members":5824},{"name":"Barcelona Casual Runners","id":1504208,"members":6480},{"name":"Photography in Barcelona","id":1890621,"members":1621},{"name":"Simplybepilates.com","id":4111012,"members":2049},{"name":"BCN Badminton","id":7770382,"members":273},{"name":"Traditional Yoga in Barcelona!","id":8862112,"members":1525},{"name":"Stand up Paddle Surf & Pilates - Barcelona","id":9481872,"members":3434},{"name":"LAUGHSTORMING - RISOTERAPIA","id":10062982,"members":316},{"name":"Multicultural Volleyball Barcelona 🏐❤","id":11557492,"members":5814},{"name":"YOGA & KALARI • Barcelona Tribe","id":16213602,"members":1496},{"name":"Hiking near Barcelona","id":16693552,"members":5691},{"name":"Barcelona Yogalinda Hot Yoga","id":17504232,"members":367},{"name":"Centre ball i art Artesants","id":17815772,"members":1040},{"name":"YO \/ MU    Yoga & Music Studio","id":17896842,"members":2575},{"name":"Learn and Play Tennis in Barcelona","id":17999562,"members":1201},{"name":"Pilates en Artesants","id":18178608,"members":104},{"name":"Nutrición Evolucionaria Barcelona Meetup","id":18181954,"members":1101},{"name":"Superhero Workouts","id":18341993,"members":303},{"name":"Clases de Danza Contemporánea","id":18362090,"members":2429},{"name":"Crossfit & personal training Barcelona","id":18377294,"members":1121},{"name":"Piratas Beach Volley 🏐 Trainings, workout & Voley playa 2x2","id":18511094,"members":2351},{"name":"YOGABODY Fitness","id":18512565,"members":246},{"name":"Yoga Barcelona Community","id":18535999,"members":597},{"name":"Pilates, Yoga & Fitness in the park or studio","id":18578786,"members":1152},{"name":"Early Risers Barcelona","id":18823525,"members":141},{"name":"Pregnancy Yoga and PostNatal (Mama and Baby) Yoga in English","id":18888508,"members":250},{"name":"Gravity X Fitness 💀 Boxing","id":18905159,"members":649},{"name":"Barcelona LynxCross - Cross Training and Vertical Moves","id":18928272,"members":429},{"name":"Barceloneta Fitness & Beach Sports","id":18933519,"members":1828},{"name":"Grupo Box&Fit","id":18944048,"members":1301},{"name":"Chicas Fitness","id":18975400,"members":390},{"name":"Meetup de Kayak de mar y Surfski en Barcelona","id":19010488,"members":971},{"name":"BCN - Coaching, Carrera\/Emprendedoria & Vida\/ Bienestar","id":19078061,"members":402},{"name":"Silvana-Fit-Bcn","id":19136366,"members":381},{"name":"Barcelona Social Media & Content Marketing","id":19171862,"members":163},{"name":"Creative Movement Barcelona","id":19243924,"members":371},{"name":"Yoga Barcelona in English","id":19266073,"members":298},{"name":"MO&MACE Barcelona Sports - Workouts\/Yoga\/Boxing\/Volleyball","id":19282450,"members":2239},{"name":"BBL Barcelona Beach live","id":19431515,"members":378},{"name":"Sunrise runners Barcelona -  madrugar y correr","id":19482356,"members":2644},{"name":"Barceloneta Yoga Meetup","id":19539647,"members":563},{"name":"grimpant","id":19630150,"members":2314},{"name":"Grupo de entrenamiento deportivo FITCLUB Barcelona","id":19670465,"members":605},{"name":"Sesiones de Abdominales Hipopresivos todos los Miércoles","id":19703855,"members":603},{"name":"Adult Tennis Camps & Holidays in Barcelona","id":19707438,"members":62},{"name":"Happy Soul Yoga Barcelona","id":19708262,"members":2551},{"name":"Céili Craic","id":19843264,"members":251},{"name":"Thai Boxing + Fitness Class - Parc de la ciutadella","id":19857638,"members":265},{"name":"Yoga Barcelona Center","id":19869411,"members":768},{"name":"Barcelona Medical Exercise for Back Pain -Barceloneta Beach","id":19892178,"members":36},{"name":"VIP Girls Barcelona Events","id":19923262,"members":552},{"name":"Experiencia Splash ~ Sirenas & Tritones","id":19971247,"members":248},{"name":"Ping Pong Brutal Barcelona","id":20072197,"members":1494},{"name":"Healthy Yoga In The Park","id":20076166,"members":50},{"name":"Clases de ZUMBA divertidas y llenas de energía en BCN!!","id":20119692,"members":270},{"name":"Alcanza tu máximo potencial!","id":20145545,"members":304},{"name":"Classical Pilates Barcelona","id":20155682,"members":121},{"name":"Barcelona Martial Arts Meetup","id":20204800,"members":158},{"name":"BARCELONA FITNESS","id":20334407,"members":352},{"name":"Finished","id":20337633,"members":115},{"name":"YOGA ALL LEVELS •• TODOS LOS NIVELES ॐ Sÿana •• Yoga","id":20919507,"members":2528},{"name":"SURF & PADDLE SURF BARCELONA","id":20975546,"members":2827},{"name":"Barcelona Holistic Bootcamp","id":21216250,"members":58},{"name":"Baloncesto Barcelona (más de 40 años)","id":21261374,"members":562},{"name":"Be Fit Bootcamp Barcelona by Royal Fitness","id":21571921,"members":1225},{"name":"Everywhere Gym Barcelona","id":21644508,"members":382},{"name":"Talleres De Acroyoga En Yogacrobatic BCN","id":21678033,"members":302},{"name":"Everest Mindful Thai Boxing Group Classes","id":21693159,"members":864},{"name":"Yoga For Women by Women","id":21819460,"members":334},{"name":"Awakening Yoga","id":21986613,"members":448},{"name":"Multisports","id":21993024,"members":152},{"name":"FRFIT BCN","id":22178023,"members":239},{"name":"Barcelona Fitness by the beach","id":22229344,"members":895},{"name":"Contemporary Belly Dance-Tribal Fusion, Sitges","id":22366304,"members":138},{"name":"Clases de Capoeira en la  Barceloneta con Mestre Capu","id":22422589,"members":170},{"name":"Free Ashtanga Yoga [ Every Mon. Wed. Fri. ] Siempre Gratis","id":22816420,"members":1085},{"name":"PB:Training","id":22882286,"members":341},{"name":"Boxing4Women","id":22928093,"members":2180},{"name":"Afterwork-TRX","id":22972016,"members":409},{"name":"FLOW yoga","id":22972189,"members":152},{"name":"PB:Running Club","id":22972533,"members":549},{"name":"Yoga on the beach in Barceloneta","id":22982284,"members":669},{"name":"Physical Training for Sports Performance, Preparación física","id":23027520,"members":161},{"name":"Yoga Tibetano Lu Jong","id":23076323,"members":204},{"name":"Yoga con Carli","id":23232554,"members":141},{"name":"Yoga & Kalari Open Air","id":23339620,"members":503},{"name":"SURF BARCELONA","id":23374780,"members":983},{"name":"Fitness maresme","id":23567923,"members":229},{"name":"Pilates & Yoga out door al aire libre,  Barcelona","id":23574853,"members":1062},{"name":"More Than Yoga Sitges","id":23603259,"members":107},{"name":"Personal Trainer Barcelona","id":23608045,"members":501},{"name":"AcroYoga Barcelona by Be Harmony","id":23693626,"members":1115},{"name":"Bacantoh al Aire Libre","id":23900410,"members":157},{"name":"Happilates Barcelona","id":24330197,"members":66},{"name":"Meetup de Ejercicio en Barcelona","id":24427453,"members":48},{"name":"Actividades gratis Barcelona","id":24610186,"members":1227},{"name":"SitgesSupFitness& Fitness at the beach","id":24741037,"members":152},{"name":"Ballet Fit \/ Dynamic Barre, Barcelona","id":24832902,"members":327},{"name":"Yoga Retreat - 50% off!","id":24923812,"members":22},{"name":"Baila y Disfruta con Zumba(R) Vanedance","id":24984015,"members":178},{"name":"Pilates en Barcelona","id":25057957,"members":180},{"name":"Meetup de Mugendo Vallcarca en Barcelona","id":25328164,"members":30},{"name":"Fun Functional Trainer","id":25336308,"members":740},{"name":"FREE CLASSES - 6TH FEBRUARY!!! ONLY","id":25434373,"members":233},{"name":"Adult Ballet Barcelona","id":25675294,"members":282},{"name":"Barcelona Movement Collective","id":25704330,"members":94},{"name":"SILENT Workouts and Yoga Barcelona","id":25780284,"members":281},{"name":"Meetup de Entrenamiento y Bienestar en Barcelona","id":25803390,"members":257},{"name":"Meetup de Zumba Barcelona","id":25960844,"members":48},{"name":"Wild Spaces Beach Yoga","id":25979878,"members":264},{"name":"Get Fit in BCN - Booty Blast Group Workouts","id":25980402,"members":50},{"name":"Free Everest Mindful Thaiboxing Class","id":26022938,"members":32},{"name":"Sientete bien en Fanals (Yoga, Danza, Empoderamiento)","id":26025089,"members":450},{"name":"Barbini24Fit","id":26059782,"members":203},{"name":"AcroYoga en Nike Box Barcelona","id":26081727,"members":165},{"name":"Meetup ¨Animal training\" (Yoga+Artes marciales)¨","id":26092993,"members":47},{"name":"Deporte al aire libre en Barcelona. ¡Todos los niveles!","id":26106195,"members":405},{"name":"Yoga Therapy in English – Yoga Designed for You","id":26114912,"members":85},{"name":"Sandy Frisbee \/ Frisbee Arenoso\n(Crear team para Ultimate)","id":26122892,"members":22},{"name":"Yoga with Robin","id":26123381,"members":64},{"name":"Hossegor Surf Trip","id":26126315,"members":311},{"name":"CLASES DE ZUMBA BARCELONA - LATIN FITNESS","id":26160336,"members":153},{"name":"YogaEmotion","id":26286652,"members":371},{"name":"Bodyflying - Yoga aereo","id":26339850,"members":356},{"name":"SMALL GROUP TRAINING BY NYTTA SPORT","id":26361515,"members":50},{"name":"Clases de Pilates","id":26368826,"members":94},{"name":"Nordic Walk CEM la Mar Bella","id":26436456,"members":195},{"name":"FREE: FITNESS BOOTCAMP BARCELONA","id":26512347,"members":691},{"name":"Yoga in Barcelona - All Levels","id":26533899,"members":217},{"name":"Paddle Surf \/ SUP en Base Náutica Barcelona","id":26584190,"members":50},{"name":"Burlesque Barcelona","id":26605055,"members":178},{"name":"Entrenamiento funcional SYNRGY FIT en Barcelona","id":26705361,"members":35},{"name":"Meetup de Vida sana en Sant Cugat del Vallès","id":26737660,"members":90},{"name":"MasterClass Estudio Pilates Máquinas 90 Minutos","id":26827457,"members":55},{"name":"Yoga in ENGLISH - Hatha flow & Trapeze\/ Aerial Yoga","id":26829654,"members":91},{"name":"Autocoaching, Amor, Salud y Bienestar con Silvia Pallerola","id":26901049,"members":169},{"name":"Team FitCoach","id":26911019,"members":345},{"name":"MyBand Trips","id":26922140,"members":175},{"name":"Green Urban Kitchen","id":27101412,"members":149},{"name":"Semana Santa en SantAnder","id":27241150,"members":47},{"name":"¿Eres amante del deporte?¿Buscas superarte?","id":27248767,"members":58},{"name":"Bootybuilding","id":27250803,"members":283},{"name":"Koala fitness","id":27271377,"members":50},{"name":"Pilates Mat en Nytta Sport","id":27289282,"members":49},{"name":"Open Source Movement Barcelona","id":27292307,"members":28},{"name":"Yoga Vinyasa by Nytta Sport","id":27293146,"members":48},{"name":"Poblenou Easy Run Tribe (PERT Squad)","id":27377268,"members":25},{"name":"Meetup de Pilates con vistas al mar","id":27418220,"members":59},{"name":"Meetup Sports et loisirs Barcelone","id":27419931,"members":25},{"name":"Yoga Trapeze in English","id":27423357,"members":103},{"name":"Pilates Barcelona","id":27484732,"members":21},{"name":"Yoga in English: reduce stress & improve your body!","id":27530875,"members":87},{"name":"Vinyasa Yoga Classes   + Wellness Events","id":27530882,"members":74},{"name":"Power FIT Boxing for Women","id":27542324,"members":338},{"name":"Meetup de Yoga en Barcelona","id":27548960,"members":59},{"name":"YogaFusión con Charol","id":27655839,"members":110},{"name":"ROLLEROBICS TRAINING - Ejercicios de fuerza con patines","id":27777187,"members":242},{"name":"Entrenamiento Personal al Aire Libre","id":27858658,"members":50},{"name":"Grupos de Fitness con \/ Group Fitness with UR Trainer BCN","id":27865684,"members":53},{"name":"- Simply YOGA Community - Barcelona <3","id":27962762,"members":155},{"name":"Master class de Zumba Party en Barcelona","id":28204828,"members":46},{"name":"FitPack","id":28214404,"members":386},{"name":"Barcelona Salsa Meetup","id":28260576,"members":770},{"name":"Nomad Movement Training","id":28266749,"members":48},{"name":"FitPack: Flexibilidad & meditación","id":28336296,"members":377},{"name":"Clase de yoga en terraza","id":28373631,"members":23},{"name":"Art&Sportlovers","id":28404832,"members":61},{"name":"Maresme Tropical","id":28438515,"members":353},{"name":"Clases De Salsa Y Bachata Para Principiantes","id":28454601,"members":717},{"name":"BIOFEST EVENT - fiestas Bio en Barcelona","id":28465830,"members":49},{"name":"Expat Social & Wellbeing","id":28483923,"members":104},{"name":"Collserola Runners","id":28494913,"members":127},{"name":"Kundalini yoga en la playa","id":28497722,"members":41},{"name":"BEACH-YOGA","id":28511533,"members":330},{"name":"ACROYOGA BCN","id":28647052,"members":221},{"name":"Self Defence For Women Barcelona","id":28656422,"members":95},{"name":"Self-Love Soul Tribe Barcelona","id":28687580,"members":23},{"name":"Street Crossfit en grupo al aire libre, gratuito.","id":28700293,"members":704},{"name":"Barcelona Classical Pilates Mat Class Meetup","id":28734510,"members":29},{"name":"Deportes BCN -  (gay Friendly)","id":28734615,"members":329},{"name":"Sí,Tú Puedes","id":28771238,"members":139},{"name":"Sailing Barcelona Coast & Refreshing Bath","id":28835720,"members":350},{"name":"Entrenamiento  al  aire  libre","id":28858818,"members":143},{"name":"Aigües Obertes BCN","id":28979234,"members":194},{"name":"Kungfu Barcelona","id":28980662,"members":50},{"name":"Yoga en Mataró","id":29070722,"members":95},{"name":"KAYMANA CONSCIOUS RUNNING","id":29088873,"members":13},{"name":"Welcome to Roller Fit Barcelona😎🦁","id":29099011,"members":42},{"name":"Gaudim plegats del territori català","id":29179769,"members":757},{"name":"Alto rendimiento deportivo: Funcional-Yoga-Pilates","id":29181462,"members":35},{"name":"Meetup de Deportes y ocio en Badalona","id":29181741,"members":49},{"name":"Women that train together","id":29217199,"members":44},{"name":"Functionalboxing","id":29257912,"members":211},{"name":"Hatha Vinyasa Y O G A  Barcelona","id":29313306,"members":40},{"name":"Yoga Outside","id":29315006,"members":47},{"name":"Bungee Workout Barcelona Entrena Volando","id":29331942,"members":62},{"name":"Marató Barcelona SUB-3:00","id":29339502,"members":33},{"name":"Functional Workout","id":29365601,"members":87},{"name":"Silent Yoga Barcelona","id":29415702,"members":48},{"name":"Beach Volley Bogatell for beginners & intermidiate","id":29434477,"members":686}],"meta":{"next":"https:\/\/api.meetup.com\/2\/groups?country=es&offset=1&city=Barcelona&format=json&lon=2.17000007629&only=id%2Cname%2Cmembers&topic=fitness&page=200&radius=25.0&fields=&key=85a1a6144b5135117763145e5f17a&lat=41.4000015259&order=id&desc=false","method":"Groups","total_count":295,"link":"https:\/\/api.meetup.com\/2\/groups","count":200,"description":"None","lon":2.1700000762939453,"title":"Meetup Groups v2","url":"https:\/\/api.meetup.com\/2\/groups?country=es&offset=0&city=Barcelona&format=json&lon=2.17000007629&only=id%2Cname%2Cmembers&topic=fitness&page=200&radius=25.0&fields=&key=85a1a6144b5135117763145e5f17a&lat=41.4000015259&order=id&desc=false","id":"","updated":1549095376000,"lat":41.400001525878906}}
